{
    "doubles": [
        "MV2c10_discriminant",
        "DL1r_pu", "DL1r_pc", "DL1r_pb",
        "DL1_pu", "DL1_pc", "DL1_pb"
    ],
    "jet_ints": [
        "HadronConeExclTruthLabelID",
        "HadronConeExclExtendedTruthLabelID"
    ],
    "jet_floats": [],
    "floats": [], "chars": [], "ints": []
}
