{
    "jet_collection": "AntiKt10LCTopoTrimmedPtFrac5SmallR20",
    "jet_calib_file": "JES_MC16recommendation_FatJet_Trimmed_JMS_comb_17Oct2018.config",
    "cal_seq": "EtaJES_JMS",
    "cal_area": "00-04-82",
    "n_const": 0,
    "top_tag_config": "JSSWTopTaggerDNN/JSSDNNTagger_AntiKt10LCTopoTrimmed_TopQuarkContained_MC15c_20170824_BOOSTSetup80Eff.dat",
    "hbb_tag_config": "dev/BTagging/202002/SubjetBScore/GhostVR30Rmax4Rmin02TrackJet_BTagging201903/hacked-network.json",
    "subjets": [
        {
            "input_name": "GhostAntiKt2TrackJet",
            "output_name": "FR",
            "min_jet_pt": 7000,
            "num_const": 2,
            "n_tracks": 0,
            "get_subjets_from_parent": true,
            "n_subjets_to_save": 3,
            "dl2_configs":[],
            "variables": {
                "file": "variables/btag-minimal.json"
            }
        },
        {
            "input_name": "GhostVR30Rmax4Rmin02TrackJet",
            "output_name": "VR",
            "min_jet_pt": 0,
            "num_const": 2,
            "n_tracks": 0,
            "get_subjets_from_parent": true,
            "n_subjets_to_save": 3,
            "dl2_configs":[],
            "variables": {
                "file": "variables/btag.json",
                "jet_floats": ["relativeDeltaRToVRJet"]
            }
        },
        {
            "input_name": "GhostVR30Rmax4Rmin02TrackJetGhostTag",
            "output_name": "VRGhostTag",
            "min_jet_pt": 7000,
            "num_const": 0,
            "n_tracks": 0,
            "get_subjets_from_parent": true,
            "n_subjets_to_save": 3,
            "dl2_configs":[
                {
                    "nn_file_path": "BTagging/201903/rnnip/antiktvr30rmax4rmin02track/network.json",
                    "output_remapping": {
                        "rnnip_pb": "rnnipT_pb",
                        "rnnip_pc": "rnnipT_pc",
                        "rnnip_pu": "rnnipT_pu"
                    }
                }
            ],
            "variables": {
                "file": "variables/btag.json",
                "jet_floats": ["relativeDeltaRToVRJet"],
                "jet_ints": ["numConstituents"],
                "doubles": [
                    "DL1rT_pu", "DL1rT_pb", "DL1rT_pc",
                    "rnnipT_pu", "rnnipT_pb", "rnnipT_pc"
                ]
            },
            "skip_if_missing_tracks": true
        }
    ],
    "decorate_with_vr_overlap": [
        "AntiKtVR30Rmax4Rmin02TrackJets",
        "AntiKtVR30Rmax4Rmin02TrackGhostTagJets"
    ],
    "variables": {
        "file": "variables/fat_jet.json",
        "floats": [
            "SubjetBScore_QCD",
            "SubjetBScore_Higgs",
            "SubjetBScore_Top"
        ],
        "ints": [
            "nVRSubjets"
        ]
    }

}

